{
  "name": "MyPay",
  "version": "0.0.7",
  "description": "MyPay mobile payments",
  "summary": "MyPay iOS SDK",
  "homepage": "https://www.whisp.software",
  "license": {
    "type": "MIT",
    "file": "LICENSE"
  },
  "authors": {
    "Anton Zagrebelny": "anton@whisp.software"
  },
  "source": {
    "git": "https://bitbucket.org/whisprnd/mypay-ios.git",
    "tag": "0.0.7"
  },
  "source_files": "Pod/Classes/**/*.{h,m}",
  "resources": "Pod/Assets/**/*.{js,storyboard,xib,ttf}",
  "platforms": {
    "ios": "9.0"
  },
  "dependencies": {
    "React/Core": [
      "0.59.5"
    ],
    "React/CxxBridge": [
      "0.59.5"
    ],
    "React/RCTAnimation": [
      "0.59.5"
    ],
    "React/RCTImage": [
      "0.59.5"
    ],
    "React/RCTLinkingIOS": [
      "0.59.5"
    ],
    "React/RCTNetwork": [
      "0.59.5"
    ],
    "React/RCTText": [
      "0.59.5"
    ],
    "React/ART": [
      "0.59.5"
    ],
    "yoga": [
      "0.59.5.React"
    ],
    "DoubleConversion": [
      "1.1.6"
    ],
    "Folly": [
      "2018.10.22.00"
    ],
    "glog": [
      "0.3.5"
    ],
    "RNGestureHandler": [
      "1.2.1"
    ],
    "RNSVG": [
      "9.5.0"
    ]
  }
}
